{"tasks":[{"id":"a297aa71-3b82-4235-8780-b54d22829b44","project_id":"d6751e49-85db-40db-bd39-52eadfa28a4f","title":"6.2.2 Remove Hardcoded Styles","description":"Como Frontend Developer, necesito limpiar la deuda técnica de estilos visuales inconsistentes eliminando definiciones ad-hoc.\n\n**Detalles Técnicos:**\n- Grep global de `backdrop-blur`, `bg-opacity`, `border-opacity`.\n- Reemplazar ocurrencias manuales con los componentes primitivos refactorizados o clases de utilidad del sistema de diseño.\n- Asegurar que no queden \"magic numbers\" en opacidades.\n\n**Criterios de Aceptación:**\n- Código CSS/Tailwind limpio y DRY (Don't Repeat Yourself).\n- Consistencia visual perfecta en toda la aplicación.","status":"todo","assignee":"James","task_order":8,"priority":"medium","feature":"UI Modernization","created_at":"2025-11-28T22:07:03.57576+00:00","updated_at":"2025-11-28T22:07:03.575765+00:00","archived":false,"sources":[],"code_examples":[]},{"id":"766a3775-3c9f-415c-a199-3ea12b51f7b3","project_id":"d6751e49-85db-40db-bd39-52eadfa28a4f","title":"6.2.1 Refactor Primitives to Glassmorphism","description":"Como Frontend Developer, necesito estandarizar los componentes base para usar el sistema de diseño centralizado de Glassmorphism.\n\n**Detalles Técnicos:**\n- Actualizar `Card`, `Button`, `Modal`, `Panel`.\n- Importar estilos desde `styles.ts` (objetos `glassCard`, `glassmorphism`).\n- Eliminar estilos inline o clases repetitivas de `backdrop-blur`.\n\n**Criterios de Aceptación:**\n- Todos los componentes primitivos comparten la misma estética de vidrio esmerilado.\n- Cambio en `styles.ts` se propaga a todos los componentes.","status":"todo","assignee":"James","task_order":9,"priority":"medium","feature":"UI Modernization","created_at":"2025-11-28T22:06:58.305837+00:00","updated_at":"2025-11-28T22:07:03.648158+00:00","archived":false,"sources":[],"code_examples":[]},{"id":"7f6c1e45-221d-4dba-ae94-fb98e35e6f78","project_id":"d6751e49-85db-40db-bd39-52eadfa28a4f","title":"5.2.2 Migrate Components to Zustand","description":"Como Frontend Developer, necesito refactorizar los componentes existentes de Work Orders para usar el nuevo store de Zustand y eliminar estados locales redundantes.\n\n**Detalles Técnicos:**\n- Componentes a migrar: `AgentWorkOrdersView`, `RealTimeStats`, `WorkOrderRow`.\n- Eliminar `useState` y `useContext` previos.\n- Implementar selectores atómicos para optimizar renderizado (ej. `useStore(state => state.filter)`).\n- Eliminar prop drilling para modales.\n\n**Criterios de Aceptación:**\n- Funcionalidad idéntica o mejorada.\n- Código más limpio y mantenible.\n- Menos re-renders verificados con React DevTools.","status":"todo","assignee":"James","task_order":10,"priority":"medium","feature":"Work Orders","created_at":"2025-11-28T22:06:27.058398+00:00","updated_at":"2025-11-28T22:07:03.162365+00:00","archived":false,"sources":[],"code_examples":[]},{"id":"492e9158-6d53-46c9-a27d-365572abe38e","project_id":"d6751e49-85db-40db-bd39-52eadfa28a4f","title":"6.1.2 Dark Mode Audit & Fix","description":"Como Frontend Developer, necesito realizar una auditoría completa de la interfaz para garantizar que el modo oscuro sea consistente y legible en todas las pantallas.\n\n**Detalles Técnicos:**\n- Escanear componentes buscando colores hardcodeados (ej. `bg-white`, `text-black`) sin variante `dark:`.\n- Reemplazar con variables semánticas o pares `bg-white dark:bg-gray-900`.\n- Referencia: `PRPs/ai_docs/UI_STANDARDS.md`.\n- Verificar contraste en textos sobre fondos oscuros.\n\n**Criterios de Aceptación:**\n- Navegar por toda la app en modo oscuro no revela \"flashes\" de blanco ni textos ilegibles.\n- Transiciones suaves al cambiar de tema.","status":"todo","assignee":"James","task_order":11,"priority":"medium","feature":"UI Modernization","created_at":"2025-11-28T22:06:51.575321+00:00","updated_at":"2025-11-28T22:07:03.496565+00:00","archived":false,"sources":[],"code_examples":[]},{"id":"0867311e-549b-42ed-a97e-362fc7bd8979","project_id":"d6751e49-85db-40db-bd39-52eadfa28a4f","title":"6.1.1 Tailwind v4 Config Verification","description":"Como Frontend Developer, necesito auditar y corregir la configuración de Tailwind CSS v4 para asegurar que usamos las últimas características y optimizaciones.\n\n**Detalles Técnicos:**\n- Verificar `postcss.config.js`.\n- Revisar archivo CSS principal (`globals.css` o similar) para uso correcto de `@theme` y variables CSS nativas.\n- Eliminar cualquier configuración legacy de v3 (ej. `tailwind.config.js` si ya no es necesario o migrarlo).\n- Asegurar que no haya construcción dinámica de clases (ej. `bg-${color}-500`) que rompa el árbol de purga.\n\n**Criterios de Aceptación:**\n- Build de CSS exitoso y optimizado.\n- Variables de tema accesibles en toda la app.","status":"todo","assignee":"James","task_order":12,"priority":"medium","feature":"UI Modernization","created_at":"2025-11-28T22:06:45.263982+00:00","updated_at":"2025-11-28T22:07:03.331235+00:00","archived":false,"sources":[],"code_examples":[]},{"id":"0cf3330c-64d4-4122-a37b-90c8c9a5ce10","project_id":"d6751e49-85db-40db-bd39-52eadfa28a4f","title":"4.2.3 Burndown Chart UI","description":"Como Frontend Developer, necesito visualizar el progreso del sprint mediante un gráfico de Burndown interactivo.\n\n**Detalles Técnicos:**\n- Usar librería de gráficos (Recharts o similar).\n- Eje X: Días del sprint.\n- Eje Y: Story Points.\n- Línea 1: Ideal Burndown (recta desde total puntos a 0).\n- Línea 2: Actual Burndown (datos de snapshots).\n- Componente `BurndownChart` integrado en el Dashboard de Sprint.\n\n**Criterios de Aceptación:**\n- Gráfico renderiza correctamente los datos de la API.\n- Tooltips muestran detalles al pasar el mouse.\n- Responsive y estéticamente alineado con el tema.","status":"todo","assignee":"James","task_order":13,"priority":"medium","feature":"Agile Tools","created_at":"2025-11-28T22:05:51.24274+00:00","updated_at":"2025-11-28T22:07:03.005134+00:00","archived":false,"sources":[],"code_examples":[]},{"id":"d7028d1c-15ad-4a02-adb0-8a6d0ce646d5","project_id":"d6751e49-85db-40db-bd39-52eadfa28a4f","title":"5.2.1 Zustand Store Setup","description":"Como Frontend Developer, necesito configurar el store principal de Zustand siguiendo la arquitectura de slices para mantener el estado organizado.\n\n**Detalles Técnicos:**\n- Crear `store/agentWorkOrdersStore.ts`.\n- Combinar slices: `uiPreferences`, `modals`, `filters`, `sse`.\n- Configurar middleware `persist` solo para preferencias de UI (tema, columnas visibles).\n- Configurar devtools para debugging.\n\n**Criterios de Aceptación:**\n- Store accesible globalmente vía hook `useAgentWorkOrdersStore`.\n- Persistencia funciona al recargar página.\n- Tipado estricto de TypeScript.","status":"todo","assignee":"James","task_order":14,"priority":"medium","feature":"Work Orders","created_at":"2025-11-28T22:06:22.589732+00:00","updated_at":"2025-11-28T22:07:02.841927+00:00","archived":false,"sources":[],"code_examples":[]},{"id":"6978a184-7a88-4f03-9974-99b608c2ddf3","project_id":"d6751e49-85db-40db-bd39-52eadfa28a4f","title":"5.1.2 Frontend SSE Slice Implementation","description":"Como Frontend Developer, necesito implementar la lógica de conexión SSE dentro de un slice de Zustand para centralizar el manejo de eventos en tiempo real.\n\n**Detalles Técnicos:**\n- Crear `createSSESlice` en `store/slices/sseSlice.ts`.\n- Estado: `connectionStatus` (connecting, open, closed, error), `liveLogs` (array).\n- Acciones: `connect(workOrderId)`, `disconnect()`.\n- Manejar reconexión automática con backoff exponencial.\n- Referencia: `PRPs/ai_docs/AGENT_WORK_ORDERS_SSE_AND_ZUSTAND.md`.\n\n**Criterios de Aceptación:**\n- La UI refleja el estado de conexión.\n- Los logs entrantes actualizan el estado global sin re-renders innecesarios.","status":"todo","assignee":"James","task_order":15,"priority":"medium","feature":"Work Orders","created_at":"2025-11-28T22:06:16.887752+00:00","updated_at":"2025-11-28T22:07:02.687426+00:00","archived":false,"sources":[],"code_examples":[]},{"id":"a65e6c8a-7b9b-4694-8348-f6c25ec3d560","project_id":"d6751e49-85db-40db-bd39-52eadfa28a4f","title":"5.1.1 Backend SSE Hardening","description":"Como Backend Developer, necesito asegurar que el endpoint de streaming de logs sea robusto y maneje correctamente las desconexiones.\n\n**Detalles Técnicos:**\n- Revisar endpoint `GET /api/agent-work-orders/{id}/logs/stream`.\n- Implementar heartbeat/keep-alive para evitar timeouts de proxies.\n- Asegurar que al cerrar la conexión del cliente, se liberen recursos en el servidor.\n- Estandarizar formato de eventos SSE (`id`, `event`, `data`).\n\n**Criterios de Aceptación:**\n- Conexión estable por > 5 minutos sin actividad.\n- Reconexión automática no duplica listeners en servidor.\n- Logs llegan en tiempo real.","status":"todo","assignee":"Keun","task_order":16,"priority":"medium","feature":"Work Orders","created_at":"2025-11-28T22:06:10.902591+00:00","updated_at":"2025-11-28T22:06:58.981054+00:00","archived":false,"sources":[],"code_examples":[]},{"id":"a44a1e9f-afc2-4690-9733-c46f8b42fd39","project_id":"d6751e49-85db-40db-bd39-52eadfa28a4f","title":"4.2.2 Daily Snapshot Job","description":"Como Backend Developer, necesito un proceso automático que registre el estado del sprint cada día para generar el gráfico de burndown.\n\n**Detalles Técnicos:**\n- Implementar Job (Cron o Celery task) que corra a media noche.\n- Lógica: Para cada sprint activo -> Sumar puntos de tareas `todo` + `doing` (remaining) y `done` (completed) -> Insertar en `burndown_snapshots`.\n- Manejo de reintentos en caso de fallo.\n\n**Criterios de Aceptación:**\n- El job se ejecuta automáticamente.\n- Los datos generados coinciden con la realidad de las tareas en ese momento.","status":"todo","assignee":"Keun","task_order":17,"priority":"medium","feature":"Agile Tools","created_at":"2025-11-28T22:05:46.644855+00:00","updated_at":"2025-11-28T22:07:02.454281+00:00","archived":false,"sources":[],"code_examples":[]}],"pagination":{"total":30,"page":1,"per_page":10,"pages":3}}