{"tasks":[{"id":"383f53a4-3fbd-4d60-9643-6409a0345b5e","project_id":"d6751e49-85db-40db-bd39-52eadfa28a4f","title":"2.1.3 Implement Side Panel Provider","description":"Como Frontend Developer, necesito integrar Abraxas en la barra lateral de VSCode para acceso rápido.\n\n**Detalles Técnicos:**\n- Definir `viewsContainers` en `package.json` para agregar el icono de Abraxas en la Activity Bar.\n- Definir `views` para el contenido del panel lateral.\n- Implementar `SidePanelViewProvider` (puede reutilizar lógica del Webview principal o ser una vista simplificada).\n- Asegurar que el icono SVG esté optimizado y visible en temas claros/oscuros.\n\n**Criterios de Aceptación:**\n- Icono de Abraxas visible en la barra lateral.\n- Al hacer clic, se despliega el panel lateral con contenido de prueba o la app.","status":"todo","assignee":"James","task_order":28,"priority":"medium","feature":"VSCode Integration","created_at":"2025-11-28T22:04:35.235462+00:00","updated_at":"2025-11-28T22:06:59.642798+00:00","archived":false,"sources":[],"code_examples":[]},{"id":"3945c912-86a7-463e-882e-0057440bd8c5","project_id":"d6751e49-85db-40db-bd39-52eadfa28a4f","title":"2.2.1 Typed Message Passing Layer","description":"Como Fullstack Developer, necesito un sistema robusto de comunicación entre la extensión (Node) y la UI (React) para intercambiar datos y comandos.\n\n**Detalles Técnicos:**\n- Definir tipos compartidos para mensajes (ej. `ExtensionMessage`, `WebviewMessage`).\n- Implementar `postMessage` wrapper en el lado de React.\n- Implementar listener en el `WebviewProvider` de la extensión.\n- Casos de uso iniciales: \"App Ready\", \"Open File\", \"Show Notification\".\n\n**Criterios de Aceptación:**\n- Tipado estricto en ambos extremos (sin `any`).\n- La extensión puede enviar un mensaje que la UI muestra en consola/toast.\n- La UI puede disparar un comando de VSCode (ej. abrir archivo) vía mensaje.","status":"todo","assignee":"James","task_order":29,"priority":"medium","feature":"VSCode Integration","created_at":"2025-11-28T22:04:38.915749+00:00","updated_at":"2025-11-28T22:07:01.244858+00:00","archived":false,"sources":[],"code_examples":[]},{"id":"9dfb4440-9104-45ec-982f-fea9412bd056","project_id":"d6751e49-85db-40db-bd39-52eadfa28a4f","title":"1.2.3 Verify Model Support (Integration Tests)","description":"Como QA Engineer, necesito verificar que la integración con LiteLLM soporte correctamente los modelos GPT-4 y Claude 3.5 Sonnet.\n\n**Detalles Técnicos:**\n- Crear script de prueba o test de integración en Python.\n- Enviar prompt de prueba a través de la API de Abraxas especificando `gpt-4`.\n- Enviar prompt de prueba especificando `claude-3-5-sonnet`.\n- Validar respuestas estructuradas.\n\n**Criterios de Aceptación:**\n- Test automatizado pasa para ambos modelos.\n- Latencia aceptable.\n- Errores de API Key o cuota se propagan correctamente.","status":"todo","assignee":"Robert","task_order":30,"priority":"medium","feature":"Core Platform","created_at":"2025-11-28T22:04:08.595449+00:00","updated_at":"2025-11-28T22:07:00.120674+00:00","archived":false,"sources":[],"code_examples":[]},{"id":"c50114ea-c807-4d66-ac5a-ae00871383c3","project_id":"d6751e49-85db-40db-bd39-52eadfa28a4f","title":"2.1.2 Implement Webview Provider","description":"Como Frontend Developer, necesito implementar un `WebviewViewProvider` para renderizar la aplicación React de Abraxas dentro de VSCode.\n\n**Detalles Técnicos:**\n- Crear clase `MainViewProvider` implementando `vscode.WebviewViewProvider`.\n- Configurar HTML del webview para cargar los assets de React (JS/CSS).\n- Manejar Content Security Policy (CSP) para permitir scripts locales y estilos.\n- Registrar el provider en `extension.ts`.\n- Agregar comando `abraxas.open` en `package.json`.\n\n**Criterios de Aceptación:**\n- Ejecutar el comando abre un panel que muestra la UI de Abraxas.\n- Soporta Hot Module Replacement (HMR) si se apunta al dev server local.\n- Carga correctamente los assets estáticos en modo producción.","status":"todo","assignee":"James","task_order":31,"priority":"medium","feature":"VSCode Integration","created_at":"2025-11-28T22:04:31.747372+00:00","updated_at":"2025-11-28T22:06:59.971606+00:00","archived":false,"sources":[],"code_examples":[]},{"id":"5ddcfd95-5f6c-4d3f-a289-c0b967749246","project_id":"d6751e49-85db-40db-bd39-52eadfa28a4f","title":"2.1.1 Initialize VSCode Extension","description":"Como Frontend Developer, necesito inicializar la estructura del proyecto de extensión de VSCode para comenzar el desarrollo de la integración.\n\n**Detalles Técnicos:**\n- Usar `yo code` o crear manualmente en `packages/extension`.\n- Configurar `package.json` con metadatos de Abraxas (Publisher, Name, Version).\n- Configurar TypeScript (`tsconfig.json`) para el entorno de extensión.\n- Configurar scripts de build en el `package.json` raíz del monorepo.\n\n**Criterios de Aceptación:**\n- `npm run build` en `packages/extension` genera el JS compilado.\n- Se puede lanzar la extensión en modo debug (F5) y ver \"Hello World\".\n- La estructura de carpetas sigue las convenciones del monorepo.","status":"todo","assignee":"James","task_order":32,"priority":"medium","feature":"VSCode Integration","created_at":"2025-11-28T22:04:28.466158+00:00","updated_at":"2025-11-28T22:07:00.935508+00:00","archived":false,"sources":[],"code_examples":[]},{"id":"a17656e4-e4d3-432b-af4a-2e457250398a","project_id":"d6751e49-85db-40db-bd39-52eadfa28a4f","title":"1.2.2 Backend Config for LiteLLM Proxy","description":"Como Backend Developer, necesito reconfigurar el backend de Python para enrutar todas las peticiones de LLM a través del proxy LiteLLM.\n\n**Detalles Técnicos:**\n- Modificar `python/src/server/config.py`.\n- Actualizar clientes de OpenAI/Anthropic para usar `base_url` apuntando al contenedor de LiteLLM.\n- Centralizar gestión de API Keys (ya sea en LiteLLM o pasadas como headers).\n\n**Criterios de Aceptación:**\n- El backend ya no conecta directamente a OpenAI/Anthropic.\n- Las variables de entorno de configuración apuntan al proxy local.","status":"todo","assignee":"Keun","task_order":34,"priority":"medium","feature":"Core Platform","created_at":"2025-11-28T22:04:05.424745+00:00","updated_at":"2025-11-28T22:07:00.435426+00:00","archived":false,"sources":[],"code_examples":[]},{"id":"35fa72a5-2d97-47e8-8d6c-c39a6189e92f","project_id":"d6751e49-85db-40db-bd39-52eadfa28a4f","title":"1.2.1 LiteLLM Service Integration","description":"Como Backend Developer, necesito integrar el servicio LiteLLM en la infraestructura Docker para centralizar y estandarizar las llamadas a modelos de IA.\n\n**Detalles Técnicos:**\n- Agregar servicio `litellm` en `docker-compose.yml`.\n- Configurar imagen Docker oficial de LiteLLM.\n- Mapear volumen para configuración si es necesario.\n- Asegurar que esté en la misma red que el backend de Python.\n\n**Criterios de Aceptación:**\n- Contenedor `litellm` levanta sin errores.\n- Accesible desde el host en puerto designado (ej. 9000 o interno).\n- Healthcheck del servicio pasa.","status":"todo","assignee":"Keun","task_order":35,"priority":"medium","feature":"Core Platform","created_at":"2025-11-28T22:04:02.325948+00:00","updated_at":"2025-11-28T22:07:01.088096+00:00","archived":false,"sources":[],"code_examples":[]},{"id":"4cd8f0b8-0a65-4a71-b94c-f338856196db","project_id":"d6751e49-85db-40db-bd39-52eadfa28a4f","title":"1.1.3 Global Rebranding Search/Replace","description":"Como Product Owner, necesito que la marca `Abraxas` reemplace a `Archon` en toda la interfaz y documentación para reflejar la nueva identidad.\n\n**Detalles Técnicos:**\n- Realizar búsqueda global de \"Archon\" (case-insensitive).\n- Reemplazar en:\n  - UI Headers/Footers/Meta tags.\n  - Documentación (`README.md`, `docs/`).\n  - Variables de entorno (ej. `ARCHON_API_KEY` -> `ABRAXAS_API_KEY`) - *Cuidado con romper compatibilidad hacia atrás si es necesario*.\n  - Namespaces de código donde sea seguro refactorizar.\n- **Excepción**: No renombrar tablas de base de datos históricas sin migración explícita.\n\n**Criterios de Aceptación:**\n- La UI muestra \"Abraxas\" en el título y encabezados.\n- La documentación se refiere al proyecto como Abraxas.\n- El build pasa exitosamente tras los cambios.","status":"todo","assignee":"James","task_order":36,"priority":"medium","feature":"Core Platform","created_at":"2025-11-28T22:03:59.572472+00:00","updated_at":"2025-11-28T22:07:00.279584+00:00","archived":false,"sources":[],"code_examples":[]},{"id":"fdb00ab6-62ff-4228-b32a-276541d50494","project_id":"d6751e49-85db-40db-bd39-52eadfa28a4f","title":"1.1.2 Port Configuration Update","description":"Como DevOps Engineer, necesito migrar la configuración de puertos al rango 9000-9100 para permitir la ejecución paralela con Archon.\n\n**Detalles Técnicos:**\n- Modificar `docker-compose.yml` para mapear puertos externos nuevos.\n- Actualizar `python/src/server/config.py` y cualquier variable de entorno relevante.\n- Puertos objetivo:\n  - Server: 9000 (antes 8000)\n  - MCP Server: 9051 (antes 8051)\n  - Agents: 9052 (antes 8052)\n- Verificar `check-env.js` si valida puertos.\n\n**Criterios de Aceptación:**\n- La aplicación es accesible en `localhost:9000`.\n- El servidor MCP responde en `localhost:9051`.\n- No hay errores de `EADDRINUSE` al correr junto a Archon.","status":"todo","assignee":"Will","task_order":38,"priority":"medium","feature":"Core Platform","created_at":"2025-11-28T22:03:55.08022+00:00","updated_at":"2025-11-28T22:06:59.316593+00:00","archived":false,"sources":[],"code_examples":[]},{"id":"67bd91fa-3999-4077-8c4f-f2072f11031c","project_id":"d6751e49-85db-40db-bd39-52eadfa28a4f","title":"1.1.1 Rename Docker Containers","description":"Como DevOps Engineer, necesito renombrar todos los contenedores Docker con el prefijo `abraxas-` para evitar conflictos con instancias de Archon corriendo simultáneamente.\n\n**Detalles Técnicos:**\n- Editar `docker-compose.yml`.\n- Actualizar `container_name` para todos los servicios.\n- Asegurar que los nombres de servicio internos también sean consistentes si es necesario para la red interna.\n- Verificar que `docker ps` muestre los nombres correctos.\n\n**Criterios de Aceptación:**\n- Todos los contenedores inician con `abraxas-` (ej. `abraxas-server`, `abraxas-db`).\n- El sistema levanta correctamente con `docker compose up`.\n- No hay conflictos de nombres con contenedores `archon-*` existentes.","status":"todo","assignee":"Will","task_order":39,"priority":"medium","feature":"Core Platform","created_at":"2025-11-28T22:03:51.699365+00:00","updated_at":"2025-11-28T22:06:59.800584+00:00","archived":false,"sources":[],"code_examples":[]}],"pagination":{"total":30,"page":3,"per_page":10,"pages":3}}