{"tasks":[{"id":"a297aa71-3b82-4235-8780-b54d22829b44","project_id":"d6751e49-85db-40db-bd39-52eadfa28a4f","title":"6.2.2 Remove Hardcoded Styles","description":"Como Frontend Developer, necesito limpiar la deuda técnica de estilos visuales inconsistentes eliminando definiciones ad-hoc.\n\n**Detalles Técnicos:**\n- Grep global de `backdrop-blur`, `bg-opacity`, `border-opacity`.\n- Reemplazar ocurrencias manuales con los componentes primitivos refactorizados o clases de utilidad del sistema de diseño.\n- Asegurar que no queden \"magic numbers\" en opacidades.\n\n**Criterios de Aceptación:**\n- Código CSS/Tailwind limpio y DRY (Don't Repeat Yourself).\n- Consistencia visual perfecta en toda la aplicación.","status":"todo","assignee":"James","task_order":8,"priority":"medium","feature":"UI Modernization","created_at":"2025-11-28T22:07:03.57576+00:00","updated_at":"2025-11-28T22:07:03.575765+00:00","archived":false,"sources":[],"code_examples":[]},{"id":"766a3775-3c9f-415c-a199-3ea12b51f7b3","project_id":"d6751e49-85db-40db-bd39-52eadfa28a4f","title":"6.2.1 Refactor Primitives to Glassmorphism","description":"Como Frontend Developer, necesito estandarizar los componentes base para usar el sistema de diseño centralizado de Glassmorphism.\n\n**Detalles Técnicos:**\n- Actualizar `Card`, `Button`, `Modal`, `Panel`.\n- Importar estilos desde `styles.ts` (objetos `glassCard`, `glassmorphism`).\n- Eliminar estilos inline o clases repetitivas de `backdrop-blur`.\n\n**Criterios de Aceptación:**\n- Todos los componentes primitivos comparten la misma estética de vidrio esmerilado.\n- Cambio en `styles.ts` se propaga a todos los componentes.","status":"todo","assignee":"James","task_order":9,"priority":"medium","feature":"UI Modernization","created_at":"2025-11-28T22:06:58.305837+00:00","updated_at":"2025-11-28T22:07:03.648158+00:00","archived":false,"sources":[],"code_examples":[]},{"id":"5e62a489-26d8-4960-af79-7efd03b49e42","project_id":"143c17aa-f82d-4874-bb37-f511da0afa69","title":"Story 1.6: Database Migration Consolidation & Seeding","description":"Consolidate all database migrations into a single file and ensure reliable data seeding for development and testing.","status":"done","assignee":"User","task_order":10,"priority":"medium","feature":"Foundation","created_at":"2025-11-28T04:16:08.884365+00:00","updated_at":"2025-11-28T04:43:39.775127+00:00","archived":false,"sources":[],"code_examples":[]},{"id":"7f6c1e45-221d-4dba-ae94-fb98e35e6f78","project_id":"d6751e49-85db-40db-bd39-52eadfa28a4f","title":"5.2.2 Migrate Components to Zustand","description":"Como Frontend Developer, necesito refactorizar los componentes existentes de Work Orders para usar el nuevo store de Zustand y eliminar estados locales redundantes.\n\n**Detalles Técnicos:**\n- Componentes a migrar: `AgentWorkOrdersView`, `RealTimeStats`, `WorkOrderRow`.\n- Eliminar `useState` y `useContext` previos.\n- Implementar selectores atómicos para optimizar renderizado (ej. `useStore(state => state.filter)`).\n- Eliminar prop drilling para modales.\n\n**Criterios de Aceptación:**\n- Funcionalidad idéntica o mejorada.\n- Código más limpio y mantenible.\n- Menos re-renders verificados con React DevTools.","status":"todo","assignee":"James","task_order":10,"priority":"medium","feature":"Work Orders","created_at":"2025-11-28T22:06:27.058398+00:00","updated_at":"2025-11-28T22:07:03.162365+00:00","archived":false,"sources":[],"code_examples":[]},{"id":"0e880d4b-e24e-4bad-a3fe-1ec4ccce4c87","project_id":"143c17aa-f82d-4874-bb37-f511da0afa69","title":"Story 1.7: Landing Page Auth Navigation","description":"Add Login and Sign Up buttons to the landing page top bar for immediate user access.","status":"review","assignee":"User","task_order":11,"priority":"high","feature":"Foundation","created_at":"2025-11-28T04:43:49.165874+00:00","updated_at":"2025-11-28T04:45:29.346622+00:00","archived":false,"sources":[],"code_examples":[]},{"id":"492e9158-6d53-46c9-a27d-365572abe38e","project_id":"d6751e49-85db-40db-bd39-52eadfa28a4f","title":"6.1.2 Dark Mode Audit & Fix","description":"Como Frontend Developer, necesito realizar una auditoría completa de la interfaz para garantizar que el modo oscuro sea consistente y legible en todas las pantallas.\n\n**Detalles Técnicos:**\n- Escanear componentes buscando colores hardcodeados (ej. `bg-white`, `text-black`) sin variante `dark:`.\n- Reemplazar con variables semánticas o pares `bg-white dark:bg-gray-900`.\n- Referencia: `PRPs/ai_docs/UI_STANDARDS.md`.\n- Verificar contraste en textos sobre fondos oscuros.\n\n**Criterios de Aceptación:**\n- Navegar por toda la app en modo oscuro no revela \"flashes\" de blanco ni textos ilegibles.\n- Transiciones suaves al cambiar de tema.","status":"todo","assignee":"James","task_order":11,"priority":"medium","feature":"UI Modernization","created_at":"2025-11-28T22:06:51.575321+00:00","updated_at":"2025-11-28T22:07:03.496565+00:00","archived":false,"sources":[],"code_examples":[]},{"id":"0867311e-549b-42ed-a97e-362fc7bd8979","project_id":"d6751e49-85db-40db-bd39-52eadfa28a4f","title":"6.1.1 Tailwind v4 Config Verification","description":"Como Frontend Developer, necesito auditar y corregir la configuración de Tailwind CSS v4 para asegurar que usamos las últimas características y optimizaciones.\n\n**Detalles Técnicos:**\n- Verificar `postcss.config.js`.\n- Revisar archivo CSS principal (`globals.css` o similar) para uso correcto de `@theme` y variables CSS nativas.\n- Eliminar cualquier configuración legacy de v3 (ej. `tailwind.config.js` si ya no es necesario o migrarlo).\n- Asegurar que no haya construcción dinámica de clases (ej. `bg-${color}-500`) que rompa el árbol de purga.\n\n**Criterios de Aceptación:**\n- Build de CSS exitoso y optimizado.\n- Variables de tema accesibles en toda la app.","status":"todo","assignee":"James","task_order":12,"priority":"medium","feature":"UI Modernization","created_at":"2025-11-28T22:06:45.263982+00:00","updated_at":"2025-11-28T22:07:03.331235+00:00","archived":false,"sources":[],"code_examples":[]},{"id":"33fc6fd7-c8ef-45b2-b4fb-1a802bf9007b","project_id":"143c17aa-f82d-4874-bb37-f511da0afa69","title":"3.8.3 [QA] Verify Search Results","description":"Test search accuracy, filter combinations, and performance. Weight: 2","status":"todo","assignee":"Robert","task_order":13,"priority":"medium","feature":null,"created_at":"2025-11-28T00:33:04.181397+00:00","updated_at":"2025-11-28T04:49:43.608169+00:00","archived":false,"sources":[],"code_examples":[]},{"id":"0cf3330c-64d4-4122-a37b-90c8c9a5ce10","project_id":"d6751e49-85db-40db-bd39-52eadfa28a4f","title":"4.2.3 Burndown Chart UI","description":"Como Frontend Developer, necesito visualizar el progreso del sprint mediante un gráfico de Burndown interactivo.\n\n**Detalles Técnicos:**\n- Usar librería de gráficos (Recharts o similar).\n- Eje X: Días del sprint.\n- Eje Y: Story Points.\n- Línea 1: Ideal Burndown (recta desde total puntos a 0).\n- Línea 2: Actual Burndown (datos de snapshots).\n- Componente `BurndownChart` integrado en el Dashboard de Sprint.\n\n**Criterios de Aceptación:**\n- Gráfico renderiza correctamente los datos de la API.\n- Tooltips muestran detalles al pasar el mouse.\n- Responsive y estéticamente alineado con el tema.","status":"todo","assignee":"James","task_order":13,"priority":"medium","feature":"Agile Tools","created_at":"2025-11-28T22:05:51.24274+00:00","updated_at":"2025-11-28T22:07:03.005134+00:00","archived":false,"sources":[],"code_examples":[]},{"id":"030d7f1c-080f-4d7d-8eba-149ac53a3f3a","project_id":"143c17aa-f82d-4874-bb37-f511da0afa69","title":"3.7.3 [QA] Verify Media Loading","description":"Test image/video loading, lightbox functionality, and responsive layout. Weight: 2","status":"todo","assignee":"Robert","task_order":14,"priority":"medium","feature":null,"created_at":"2025-11-28T00:32:53.863897+00:00","updated_at":"2025-11-28T04:49:43.470083+00:00","archived":false,"sources":[],"code_examples":[]}],"pagination":{"total":67,"page":1,"per_page":10,"pages":7}}