{"tasks":[{"id":"e18a85c8-fcee-4567-8225-5bdd15424f18","project_id":"d6751e49-85db-40db-bd39-52eadfa28a4f","title":"4.2.1 Burndown Snapshots Schema","description":"Como Backend Developer, necesito una estructura para almacenar el historial de progreso del sprint día a día.\n\n**Detalles Técnicos:**\n- Tabla `burndown_snapshots`:\n  - `id`: UUID\n  - `sprint_id`: UUID (FK)\n  - `date`: DATE\n  - `remaining_points`: INTEGER\n  - `completed_points`: INTEGER\n  - Unique Constraint: (sprint_id, date) para evitar duplicados diarios.\n\n**Criterios de Aceptación:**\n- Migración creada y aplicada.","status":"todo","assignee":"Keun","task_order":18,"priority":"medium","feature":"Agile Tools","created_at":"2025-11-28T22:05:41.947399+00:00","updated_at":"2025-11-28T22:07:02.301365+00:00","archived":false,"sources":[],"code_examples":[]},{"id":"6b136af1-32cf-41fa-9498-42ae2e8addd8","project_id":"d6751e49-85db-40db-bd39-52eadfa28a4f","title":"3.2.3 Agent Creator UI","description":"Como Frontend Developer, necesito construir una interfaz intuitiva para que los usuarios creen y configuren sus propios agentes.\n\n**Detalles Técnicos:**\n- Crear página/modal `AgentBuilder`.\n- Formulario con:\n  - Nombre, Rol, Prompt del Sistema (Textarea grande).\n  - Selector de Icono/Color.\n  - **Selector de Herramientas**: Lista con checkboxes o dual-listbox de todas las herramientas MCP disponibles.\n- Conectar con API `POST /api/agents`.\n\n**Criterios de Aceptación:**\n- Usuario puede crear un agente completo desde la UI.\n- Validación de campos obligatorios en el cliente.\n- Feedback visual de éxito/error.","status":"todo","assignee":"James","task_order":19,"priority":"medium","feature":"Agent Management","created_at":"2025-11-28T22:05:13.890128+00:00","updated_at":"2025-11-28T22:07:00.58241+00:00","archived":false,"sources":[],"code_examples":[]},{"id":"62d80b57-7e7a-4664-bcc9-d819b6f5d46a","project_id":"d6751e49-85db-40db-bd39-52eadfa28a4f","title":"4.1.3 Sprint Management API","description":"Como Backend Developer, necesito implementar la API para crear, iniciar y cerrar sprints, así como mover tareas entre ellos.\n\n**Detalles Técnicos:**\n- Endpoints CRUD para `sprints`.\n- Endpoint especial `POST /api/sprints/{id}/start` y `POST /api/sprints/{id}/complete`.\n- Lógica de negocio: Al completar sprint, preguntar qué hacer con tareas incompletas (mover al backlog o siguiente sprint).\n\n**Criterios de Aceptación:**\n- Flujo completo de sprint posible vía API.\n- Validación: No puede haber dos sprints activos simultáneamente en el mismo proyecto.","status":"todo","assignee":"Keun","task_order":20,"priority":"medium","feature":"Agile Tools","created_at":"2025-11-28T22:05:38.528115+00:00","updated_at":"2025-11-28T22:07:02.129632+00:00","archived":false,"sources":[],"code_examples":[]},{"id":"13538201-bd0d-47ab-942a-124379013dec","project_id":"d6751e49-85db-40db-bd39-52eadfa28a4f","title":"4.1.2 Task Agile Enhancements","description":"Como Backend Developer, necesito actualizar la tabla de tareas existente para incluir campos de metodología Agile.\n\n**Detalles Técnicos:**\n- Crear migración para alterar `archon_tasks` (o la tabla de tareas actual).\n- Agregar columnas:\n  - `story_points`: INTEGER (Nullable)\n  - `sprint_id`: UUID (FK -> sprints.id, Nullable)\n- Actualizar índices para búsquedas rápidas por sprint.\n\n**Criterios de Aceptación:**\n- Las tareas existentes mantienen su integridad.\n- Se puede asignar una tarea a un sprint y darle puntos.","status":"todo","assignee":"Keun","task_order":21,"priority":"medium","feature":"Agile Tools","created_at":"2025-11-28T22:05:34.013375+00:00","updated_at":"2025-11-28T22:07:01.965056+00:00","archived":false,"sources":[],"code_examples":[]},{"id":"2d7fa560-9d5f-4b0b-ab76-72b48393fd53","project_id":"d6751e49-85db-40db-bd39-52eadfa28a4f","title":"4.1.1 Sprints Database Schema","description":"Como Backend Developer, necesito crear el esquema de base de datos para soportar la gestión de Sprints.\n\n**Detalles Técnicos:**\n- Crear migración Supabase.\n- Tabla `sprints`:\n  - `id`: UUID (PK)\n  - `name`: TEXT (ej. \"Sprint 1\")\n  - `start_date`: DATE\n  - `end_date`: DATE\n  - `goal`: TEXT\n  - `status`: ENUM (planned, active, completed)\n  - `project_id`: UUID (FK -> projects.id)\n\n**Criterios de Aceptación:**\n- Migración aplicada exitosamente.\n- Restricciones de fecha (end_date > start_date) aplicadas si es posible en DB o app.","status":"todo","assignee":"Keun","task_order":22,"priority":"medium","feature":"Agile Tools","created_at":"2025-11-28T22:05:29.684735+00:00","updated_at":"2025-11-28T22:07:01.808173+00:00","archived":false,"sources":[],"code_examples":[]},{"id":"c67bc2eb-b80d-4771-8a5e-544f400e5d8e","project_id":"d6751e49-85db-40db-bd39-52eadfa28a4f","title":"2.2.2 Router Adaptation for Webview","description":"Como Frontend Developer, necesito adaptar el React Router para funcionar dentro del entorno sandbox del Webview donde no hay historial de navegador tradicional.\n\n**Detalles Técnicos:**\n- Cambiar de `BrowserRouter` a `MemoryRouter` o `HashRouter` si es necesario para la extensión.\n- Implementar un mecanismo para sincronizar el estado de la ruta con la extensión (opcional, para persistencia).\n- Manejar deep links desde la extensión para navegar a páginas específicas (ej. abrir tarea específica).\n\n**Criterios de Aceptación:**\n- La navegación interna en la app funciona sin recargar el webview.\n- La extensión puede ordenar a la app navegar a `/tasks/123` programáticamente.","status":"todo","assignee":"James","task_order":23,"priority":"medium","feature":"VSCode Integration","created_at":"2025-11-28T22:04:42.114357+00:00","updated_at":"2025-11-28T22:07:00.749325+00:00","archived":false,"sources":[],"code_examples":[]},{"id":"b8c549d9-ebe4-4d6c-ad4b-b6b3fea70b11","project_id":"d6751e49-85db-40db-bd39-52eadfa28a4f","title":"3.2.1 Tool Scoping Schema","description":"Como Backend Developer, necesito extender el esquema de base de datos para asociar herramientas MCP específicas a cada agente.\n\n**Detalles Técnicos:**\n- Crear tabla de unión `agent_tools`:\n  - `agent_id`: UUID (FK -> agents.id)\n  - `tool_name`: TEXT (Nombre de la herramienta MCP)\n  - `server_name`: TEXT (Opcional, si hay múltiples servidores MCP)\n  - PK compuesta (agent_id, tool_name)\n- Alternativa: Columna JSONB `allowed_tools` en tabla `agents` (decidir según complejidad de consultas).\n\n**Criterios de Aceptación:**\n- Migración creada y aplicada.\n- Integridad referencial mantenida (si se borra agente, se borran sus permisos).","status":"todo","assignee":"Keun","task_order":24,"priority":"medium","feature":"Agent Management","created_at":"2025-11-28T22:05:06.640318+00:00","updated_at":"2025-11-28T22:06:59.129822+00:00","archived":false,"sources":[],"code_examples":[]},{"id":"b2c51d62-2739-4bda-870b-c4324e56a18f","project_id":"d6751e49-85db-40db-bd39-52eadfa28a4f","title":"3.2.2 Dynamic MCP Router","description":"Como Backend Developer, necesito modificar el servidor MCP para filtrar las herramientas disponibles según el agente que realiza la petición.\n\n**Detalles Técnicos:**\n- Crear endpoint/lógica `/mcp/{agent_id}/list_tools`.\n- Interceptar llamadas a `list_tools` del protocolo MCP.\n- Consultar DB para obtener herramientas permitidas para `agent_id`.\n- Filtrar la lista global de herramientas y retornar solo las autorizadas.\n\n**Criterios de Aceptación:**\n- Un agente configurado solo con herramientas de \"Backend\" NO ve herramientas de \"Frontend\".\n- Seguridad: El filtrado ocurre en el servidor, no en el cliente.","status":"todo","assignee":"Keun","task_order":25,"priority":"medium","feature":"Agent Management","created_at":"2025-11-28T22:05:10.214913+00:00","updated_at":"2025-11-28T22:06:59.479356+00:00","archived":false,"sources":[],"code_examples":[]},{"id":"22d1c783-4ba0-4a69-a3e3-1457104511c1","project_id":"d6751e49-85db-40db-bd39-52eadfa28a4f","title":"3.1.2 Agents CRUD API","description":"Como Backend Developer, necesito implementar los endpoints REST para la gestión completa del ciclo de vida de los agentes.\n\n**Detalles Técnicos:**\n- Implementar en Python (FastAPI/Flask según stack actual).\n- `GET /api/agents`: Listar todos los agentes.\n- `POST /api/agents`: Crear nuevo agente (validar campos requeridos).\n- `PUT /api/agents/{id}`: Actualizar agente existente.\n- `DELETE /api/agents/{id}`: Eliminar agente (soft delete preferible si hay historial).\n- Integrar con Supabase client.\n\n**Criterios de Aceptación:**\n- Todos los endpoints funcionan correctamente (200 OK, 201 Created, 404 Not Found).\n- Validaciones de entrada previenen datos corruptos.\n- Tests unitarios para cada endpoint.","status":"todo","assignee":"Keun","task_order":26,"priority":"medium","feature":"Agent Management","created_at":"2025-11-28T22:05:02.754431+00:00","updated_at":"2025-11-28T22:07:01.613897+00:00","archived":false,"sources":[],"code_examples":[]},{"id":"ebc66b88-e2ab-49de-bed3-0ec57ede1f06","project_id":"d6751e49-85db-40db-bd39-52eadfa28a4f","title":"3.1.1 Agents Database Schema","description":"Como Backend Developer, necesito crear la estructura de base de datos para almacenar las definiciones de los agentes de IA.\n\n**Detalles Técnicos:**\n- Crear nueva migración Supabase en `supabase/migrations`.\n- Tabla `agents`:\n  - `id`: UUID (Primary Key, default gen_random_uuid())\n  - `name`: TEXT (Not Null)\n  - `role`: TEXT (Not Null)\n  - `system_prompt`: TEXT (Not Null)\n  - `icon`: TEXT (Emoji o URL)\n  - `color`: TEXT (Hex code)\n  - `created_at`: TIMESTAMPTZ (Default now())\n  - `updated_at`: TIMESTAMPTZ (Default now())\n- Habilitar RLS (Row Level Security) si aplica.\n\n**Criterios de Aceptación:**\n- La migración se aplica exitosamente con `supabase db push`.\n- Se puede insertar un agente de prueba manualmente.","status":"todo","assignee":"Keun","task_order":27,"priority":"medium","feature":"Agent Management","created_at":"2025-11-28T22:04:59.509695+00:00","updated_at":"2025-11-28T22:07:01.45702+00:00","archived":false,"sources":[],"code_examples":[]}],"pagination":{"total":30,"page":2,"per_page":10,"pages":3}}